<?xml version="1.0"?>
<testsuites failures="0" errors="0" tests="17" skipped="0">
  <testsuite name="Root Suite" timestamp="2024-01-31T19:53:21" tests="0" time="0.000" failures="0"/>
  <testsuite name="User functionality check" timestamp="2024-01-31T19:53:21" tests="10" file="C:\Users\Admin\rostkovych\pet-api-testing-03-04\tests\api\specs\1_user_api-test.ts" time="1.593" failures="0">
    <testcase name="Registration negative test with email: &apos;&apos;, userName: &apos;&apos; and password: &apos;&apos;" time="0.106" classname="User functionality check Registration negative test with email: &apos;&apos;, userName: &apos;&apos; and password: &apos;&apos;"/>
    <testcase name="Registration negative test with email: &apos;123&apos;, userName: &apos;1&apos; and password: &apos;123&apos;" time="0.111" classname="User functionality check Registration negative test with email: &apos;123&apos;, userName: &apos;1&apos; and password: &apos;123&apos;"/>
    <testcase name="View all users test" time="0.318" classname="User functionality check View all users test"/>
    <testcase name="Login test using registered user" time="0.122" classname="User functionality check Login test using registered user"/>
    <testcase name="View current user(by token) test" time="0.109" classname="User functionality check View current user(by token) test"/>
    <testcase name="Updating user&apos;s data test" time="0.109" classname="User functionality check Updating user&apos;s data test"/>
    <testcase name="Check the info of updated current user" time="0.109" classname="User functionality check Check the info of updated current user"/>
    <testcase name="View user&apos;s data by id test" time="0.108" classname="User functionality check View user&apos;s data by id test"/>
    <testcase name="Delete user by id" time="0.116" classname="User functionality check Delete user by id"/>
    <testcase name="View user&apos;s data by id negative test" time="0.105" classname="User functionality check View user&apos;s data by id negative test"/>
  </testsuite>
  <testsuite name="Post functionality check" timestamp="2024-01-31T19:53:22" tests="7" file="C:\Users\Admin\rostkovych\pet-api-testing-03-04\tests\api\specs\2_post_api-test.ts" time="1.679" failures="0">
    <testcase name="Create new post test" time="0.115" classname="Post functionality check Create new post test"/>
    <testcase name="Create new post test" time="0.116" classname="Post functionality check Create new post test"/>
    <testcase name="Create new post test" time="0.136" classname="Post functionality check Create new post test"/>
    <testcase name="View all posts test" time="0.464" classname="Post functionality check View all posts test"/>
    <testcase name="Like created post test" time="0.111" classname="Post functionality check Like created post test"/>
    <testcase name="Comment on created post test" time="0.116" classname="Post functionality check Comment on created post test"/>
    <testcase name="View all posts test" time="0.463" classname="Post functionality check View all posts test"/>
  </testsuite>
</testsuites>