{
    "schema_allUsers": {
        "type": "array",
        "items": {
            "type": "object",
            "required": [
                "id",
                "avatar",
                "email",
                "userName"
            ],
            "properties": {
                "id": {
                    "type": "integer"
                },
                "avatar": {
                    "type": "string"
                },
                "email": {
                    "type": [
                        "string",
                        "null"
                    ]
                },
                "userName": {
                    "type": "string"
                }
            }
        }
    },
    "schema_register": {
        "type": "object",
        "required": [
            "user",
            "token"
        ],
        "properties": {
            "user": {
                "type": "object",
                "required": [
                    "id",
                    "avatar",
                    "email",
                    "userName"
                ],
                "properties": {
                    "id": {
                        "type": "integer"
                    },
                    "avatar": {
                        "type": "string"
                    },
                    "email": {
                        "type": "string"
                    },
                    "userName": {
                        "type": "string"
                    }
                }
            },
            "token": {
                "type": "object",
                "required": [
                    "accessToken",
                    "refreshToken"
                ],
                "properties": {
                    "accessToken": {
                        "type": "object",
                        "required": [
                            "token",
                            "expiresIn"
                        ],
                        "properties": {
                            "token": {
                                "type": "string"
                            },
                            "expiresIn": {
                                "type": "integer"
                            }
                        }
                    },
                    "refreshToken": {
                        "type": "string"
                    }
                }
            }
        }
    },
    "schema_login":{
        "type": "object",
        "required": [
            "user",
            "token"
        ],
        "properties": {
            "user": {
                "type": "object",
                "required": [
                    "id",
                    "avatar",
                    "email",
                    "userName"
                ],
                "properties": {
                    "id": {
                        "type": "integer"
                    },
                    "avatar": {
                        "type": "string"
                    },
                    "email": {
                        "type": "string"
                    },
                    "userName": {
                        "type": "string"
                    }
                }
            },
            "token": {
                "type": "object",
                "required": [
                    "accessToken",
                    "refreshToken"
                ],
                "properties": {
                    "accessToken": {
                        "type": "object",
                        "required": [
                            "token",
                            "expiresIn"
                        ],
                        "properties": {
                            "token": {
                                "type": "string"
                            },
                            "expiresIn": {
                                "type": "integer"
                            }
                        }
                    },
                    "refreshToken": {
                        "type": "string"
                    }
                }
            }
        }
    },
    "schema_singleUser":{
        "type": "object",
        "required": [
            "id",
            "avatar",
            "email",
            "userName"
        ],
        "properties": {
            "id": {
                "type": "integer"
            },
            "avatar": {
                "type": "string"
            },
            "email": {
                "type": "string"
            },
            "userName": {
                "type": "string"
            }
        }
    },
    "schema_allPosts": {
        "type": "array",
        "items": {
            "type": "object",
            "required": [
                "id",
                "createdAt",
                "author",
                "previewImage",
                "body",
                "comments",
                "reactions"
            ],
            "properties": {
                "id": {
                    "type": "integer"
                },
                "createdAt": {
                    "type": "string"
                },
                "author": {
                    "type": "object",
                    "required": [
                        "id",
                        "avatar",
                        "email",
                        "userName"
                    ],
                    "properties": {
                        "id": {
                            "type": "integer"
                        },
                        "avatar": {
                            "type": "string"
                        },
                        "email": {
                            "type": "string"
                        },
                        "userName": {
                            "type": "string"
                        }
                    }
                },
                "previewImage": {
                    "type": "string"
                },
                "body": {
                    "type": [
                        "string",
                        "null"
                    ]
                },
                "comments": {
                    "type": "array",
                    "items": {
                        "type": "object",
                        "required": [
                            "id",
                            "createdAt",
                            "author",
                            "body",
                            "reactions"
                        ],
                        "properties": {
                            "id": {
                                "type": "integer"
                            },
                            "createdAt": {
                                "type": "string"
                            },
                            "author": {
                                "type": "object",
                                "required": [
                                    "id",
                                    "avatar",
                                    "email",
                                    "userName"
                                ],
                                "properties": {
                                    "id": {
                                        "type": "integer"
                                    },
                                    "avatar": {
                                        "type": "string"
                                    },
                                    "email": {
                                        "type": "string"
                                    },
                                    "userName": {
                                        "type": "string"
                                    }
                                }
                            },
                            "body": {
                                "type": "string"
                            },
                            "reactions": {
                                "type": "array",
                                "items": {}
                            }
                        }
                    }
                },
                "reactions": {
                    "type": "array",
                    "items": {
                        "type": "object",
                        "required": [
                            "isLike",
                            "user"
                        ],
                        "properties": {
                            "isLike": {
                                "type": "boolean"
                            },
                            "user": {
                                "type": "object",
                                "required": [
                                    "id",
                                    "avatar",
                                    "email",
                                    "userName"
                                ],
                                "properties": {
                                    "id": {
                                        "type": "integer"
                                    },
                                    "avatar": {
                                        "type": "string"
                                    },
                                    "email": {
                                        "type": "string"
                                    },
                                    "userName": {
                                        "type": "string"
                                    }
                                }
                            }
                        }
                    }
                }
            }
        }
    },
    "schema_singlePost":{
        "type": "object",
        "required": [
            "id",
            "createdAt",
            "author",
            "previewImage",
            "body",
            "comments",
            "reactions"
        ],
        "properties": {
            "id": {
                "type": "integer"
            },
            "createdAt": {
                "type": "string"
            },
            "author": {
                "type": "object",
                "required": [
                    "id",
                    "avatar",
                    "email",
                    "userName"
                ],
                "properties": {
                    "id": {
                        "type": "integer"
                    },
                    "avatar": {
                        "type": "string"
                    },
                    "email": {
                        "type": "string"
                    },
                    "userName": {
                        "type": "string"
                    }
                }
            },
            "previewImage": {
                "type": "string"
            },
            "body": {
                "type": "string"
            },
            "comments": {
                "type": "array",
                "items": {}
            },
            "reactions": {
                "type": "array",
                "items": {}
            }
        }
    },
    "schema_error":{
        "type": "object",
        "required": [
            "error",
            "code"
        ],
        "properties": {
            "error": {
                "type": "string"
            },
            "code": {
                "type": "integer"
            }
        }
    },
    "schema_comment":{
        "type": "object",
        "required": [
            "id",
            "createdAt",
            "author",
            "body",
            "reactions"
        ],
        "properties": {
            "id": {
                "type": "integer"
            },
            "createdAt": {
                "type": "string"
            },
            "author": {
                "type": "object",
                "required": [
                    "id",
                    "avatar",
                    "email",
                    "userName"
                ],
                "properties": {
                    "id": {
                        "type": "integer"
                    },
                    "avatar": {
                        "type": "string"
                    },
                    "email": {
                        "type": "string"
                    },
                    "userName": {
                        "type": "string"
                    }
                }
            },
            "body": {
                "type": "string"
            },
            "reactions": {
                "type": "array",
                "items": {}
            }
        }
    },
    "schema_validationError":{
        "type": "object",
        "required": [
            "message",
            "errors"
        ],
        "properties": {
            "message": {
                "type": "string"
            },
            "errors": {
                "type": "array",
                "items": {
                    "type": "string"
                }
            }
        }
    }
}
